{
  "Projects": [
  {
      "ID": "100",
      "Name": "GitLab-Starter",
      "URL": "https://gitlab.com/GitBones/templates/gitlab-starter.git",
      "Description": "GitLab starter template with description templates",
      "Organization": "GitBones Core",
      "Vendor": "GitBones",
      "Topic": "General",
      "Language": "CloudFormation"
  },
  {
    "ID": "101",
    "Name": "AWS Quick Start VPC",
    "URL": "https://github.com/aws-quickstart/quickstart-aws-vpc.git",
    "Description": "This Quick Start provides a networking foundation for AWS Cloud infrastructures. It deploys an Amazon Virtual Private Cloud (Amazon VPC) according to AWS best practices and guidelines.",
    "Organization": "GitBones AWS Team",
    "Vendor": "AWS",
    "Topic": "CloudFormation",
    "Language": "CloudFormation"
  },
  {
    "ID": "102",
    "Name": "AWS Quick Start EKS",
    "URL": "https://github.com/aws-quickstart/quickstart-amazon-eks.git",
    "Description": "This Quick Start helps you to deploy a Kubernetes cluster that uses Amazon Elastic Container Service for Kubernetes (Amazon EKS), enabling you to deploy, manage, and scale containerized applications running on Kubernetes on the Amazon Web Services (AWS) Cloud.",
    "Organization": "GitBones AWS Team",
    "Vendor": "AWS",
    "Topic": "CloudFormation",
    "Language": "CloudFormation"
  }
]}